-171.85,47.44,-20.9009,22.4555,-81.97,48.66,45.5095,30.9582,8.63,59.34,221.559,34.8372,31.66,65.24,111.673,23.6936
-314.96,47.46,-160.954,22.5347,-297.84,48.64,-156.506,30.4251,-28.56,59.31,217.133,35.7325,65.94,65.22,117.004,24.2917
63.56,47.46,6.93324,11.6805,30.32,48.64,-21.837,15.3453,-3.19,59.31,-97.7941,17.5804,-11.71,65.22,-60.6043,11.9785
-79.55,47.46,-133.119,11.1218,-185.55,48.64,-223.853,17.6907,-40.37,59.31,-102.22,17.9084,22.58,65.22,-55.273,12.1365
85.04,47.46,51.3064,10.8868,80.42,48.64,52.7806,13.4635,7.71,59.31,-63.7208,16.0938,-17.8,65.22,-42.1799,10.9826
58.07,47.44,88.7463,9.0809,135.45,48.66,149.235,14.4444,29.47,59.34,68.1467,14.6222,-16.48,65.24,36.8487,9.90942
-100.87,47.46,-13.8665,16.5187,-48.11,48.64,43.674,21.7016,5.06,59.31,195.588,24.8625,18.58,65.22,121.209,16.9402
-42.24,47.48,-126.186,15.1524,-167.76,48.62,-245.69,22.4457,-42.25,59.29,-200.014,23.7466,15.7,65.2,-115.877,16.1265
-116.49,47.46,-76.9596,13.3336,-110.16,48.64,-79.1709,16.4893,-10.56,59.31,95.5812,19.7108,24.39,65.22,63.2699,13.4508
26.62,47.46,63.0931,10.7144,105.71,48.64,122.845,15.8715,26.62,59.31,100.007,16.7914,-9.9,65.22,57.9387,11.4032
-215.08,47.44,-259.205,22.2962,-501.68,48.66,-449.541,31.9976,-109.16,59.34,-230.411,32.9739,61.04,65.24,-101.011,22.4495
-71.97,47.46,-119.152,22.3759,-285.81,48.64,-247.525,31.4822,-71.98,59.31,-225.985,33.9184,26.75,65.22,-106.342,23.0799
