-20.47,47.44,48.7813,15.3214,165.98,48.66,222.403,18.4559,165.4,59.34,217.051,18.8628,102.77,65.24,94.2929,16.5325
62,47.46,121.434,15.3006,256.5,48.64,318.442,18.6359,361.22,59.31,326.405,18.644,267.14,65.22,260.301,16.767
7.57,47.46,-39.986,7.74423,-61.39,48.64,-110.013,9.3,-61.18,59.31,-107.53,9.40859,-38.01,65.22,-50.2083,8.46978
90.04,47.46,32.667,8.21591,29.12,48.64,-13.9745,9.78566,134.64,59.31,1.82364,10.5646,126.37,65.22,115.8,8.35875
-16.74,47.46,-50.875,7.00176,-69.25,48.64,-105.355,8.43045,-97.53,59.31,-108.138,8.34002,-72.13,65.22,-88.8082,7.82228
-65.73,47.44,-21.778,6.70826,-21.26,48.66,9.31632,7.98996,-98.29,59.34,-1.21576,8.62596,-92.25,65.24,-77.1998,6.82489
-12.01,47.46,79.972,10.952,97.43,48.64,220.027,13.1522,97.09,59.31,215.061,13.3058,60.32,65.22,100.417,11.9781
94.48,47.48,-7.31897,10.7293,-6.91,48.62,-123.988,12.818,98.73,59.29,-105.707,13.5228,104.06,65.2,65.5914,11.2225
22.93,47.46,76.3125,8.57538,94.87,48.64,158.033,10.3252,133.6,59.31,162.207,10.2144,98.81,65.22,133.212,9.5803
-59.54,47.46,3.65948,7.58675,4.36,48.64,61.994,9.06367,-62.22,59.31,52.8534,9.56203,-65.57,65.22,-32.7957,7.93548
243.44,47.44,96.5247,15.363,78.73,48.66,-30.3255,18.0904,364.03,59.34,1.65683,19.2929,341.66,65.24,237.723,16.0532
160.97,47.46,23.8717,15.3422,-11.78,48.64,-126.364,18.274,168.21,59.31,-107.697,19.0791,177.28,65.22,71.715,16.2946
