-456.24,47.44,18.652,23.7071,-16.05,48.66,173.175,51.6772,-431.3,59.34,-127.213,50.817,-688.69,65.24,-482.614,46.6433
-575.57,47.46,-22.0538,22.4437,-114.22,48.64,94.4671,53.2527,-644.59,59.31,-259.208,50.1497,-917.63,65.22,-591.766,45.9415
168.75,47.46,49.7983,12.7089,5.94,48.64,-41.9313,26.5382,159.52,59.31,31.6571,24.2657,254.72,65.22,219.863,24.2234
49.42,47.46,9.09247,11.9604,-92.23,48.64,-120.639,25.1613,-53.77,59.31,-100.338,30.7862,25.78,65.22,110.711,23.9905
155.4,47.46,46.7675,11.8788,30.84,48.64,-1.71839,24.7606,174.04,59.31,65.103,20.3608,247.76,65.22,182.959,22.3503
-36.08,47.44,-6.06165,9.76564,67.33,48.66,80.4258,20.5441,39.25,59.34,66.8918,25.1369,-18.82,65.24,-73.807,19.5882
-267.79,47.46,-99.5966,17.9731,-9.42,48.64,83.8626,37.5307,-253.15,59.31,-63.3142,34.3169,-404.23,65.22,-439.725,34.2571
148.47,47.48,58.8908,16.3752,-88.75,48.62,-162.57,34.3412,39.87,59.29,-68.6806,37.9264,175.29,65.2,330.573,32.1642
-212.88,47.46,-70.1512,14.5485,-42.25,48.64,2.57759,30.3254,-238.41,59.31,-97.6545,24.9368,-339.4,65.22,-274.439,27.3735
-93.55,47.46,-29.4454,11.579,55.92,48.64,81.285,24.2829,-25.12,59.31,34.3403,26.818,-110.46,65.22,-165.287,22.7436
133.61,47.44,-100.064,26.0508,-249.37,48.66,-330.589,48.3725,-145.37,59.34,-136.776,52.1261,69.7,65.24,264.31,48.0162
252.94,47.46,-59.3578,24.9065,-151.2,48.64,-251.882,50.0521,67.92,59.31,-4.78138,51.4758,298.64,65.22,373.462,47.3347
