F13AL1,13,A,1,-140.40019164895057,32.54711623242412
F13AL2,13,A,2,-116.62960372177622,32.56125017245731
F13AL3,13,A,3,-59.36192128547191,32.54711623616231
F13AL4,13,A,4,-84.15125018700564,32.56125017619388
F13BL1,13,B,1,-119.78665939705024,31.545719391138537
F13BL2,13,B,2,-99.35345604117174,31.559727614620137
F13BL3,13,B,3,-46.28563328560631,31.545719393030122
F13BL4,13,B,4,-75.62212092580012,31.55972761651088
F13CL1,13,C,1,-124.97496981131917,32.12321524306958
F13CL2,13,C,2,-112.97159898049358,32.14358443773109
F13CL3,13,C,3,-55.05232703535512,32.12321524405323
F13CL4,13,C,4,-91.53072815797714,32.14358443871411
F13D1L1,13,D1,1,-131.62967672451487,32.621520999203504
F13D1L2,13,D1,2,-122.09068443326032,32.64437830623934
F13D1L3,13,D1,3,-61.19703121430575,32.62152100017212
F13D1L4,13,D1,4,-99.4971847267152,32.64437830720728
F13D2L1,13,D2,1,-138.06451370373907,32.944434853925216
F13D2L2,13,D2,2,-128.37752136920244,32.96804174205318
F13D2L3,13,D2,3,-65.79941993231841,32.944434855157844
F13D2L4,13,D2,4,-103.48462055753771,32.96804174328492
F14AL1,14,A,1,-176.99910132887453,36.742252217625705
F14AL2,14,A,2,-125.3088296380156,36.73612044620844
F14AL3,14,A,3,-69.58715191058218,36.742252233125704
F14AL4,14,A,4,-66.64220878883498,36.73612046171101
F14BL1,14,B,1,-154.10917738699936,34.719222943969655
F14BL2,14,B,2,-106.67709051676866,34.71560274732857
F14BL3,14,B,3,-53.71957409988681,34.71922295614336
F14BL4,14,B,4,-57.54373112176836,34.71560275950353
F14CL1,14,C,1,-161.57387949124313,34.478652218790806
F14CL2,14,C,2,-121.65082489673296,34.48161158600809
F14CL3,14,C,3,-65.27755766046539,34.47865222866921
F14CL4,14,C,4,-74.02168675980647,34.481611595885646
F14D1L1,14,D1,1,-169.62944282886383,34.87213163024395
F14D1L2,14,D1,2,-131.60412046681813,34.87707562725135
F14D1L3,14,D1,3,-73.13997864548583,34.87213164001089
F14D1L4,14,D1,4,-82.33851157729077,34.87707563701691
F14D2L1,14,D2,1,-176.93981507318313,35.41694800860728
F14D2L2,14,D2,2,-138.41233872608427,35.4217971852219
F14D2L3,14,D2,3,-78.81594036734896,35.41694801902286
F14D2L4,14,D2,4,-86.5449275638639,35.42179719563605
F15AL1,15,A,1,-213.677707988154,44.269732716835584
F15AL2,15,A,2,-134.00695524524053,44.24197301296912
F15AL3,15,A,3,-79.83464877224833,44.269732747303756
F15AL4,15,A,4,-49.09504008674048,44.241973043456404
F15BL1,15,B,1,-188.50643533596667,41.266375283437
F15BL2,15,B,2,-114.01667277732486,41.24232263470339
F15BL3,15,B,3,-61.169702900315315,41.266375310503655
F15BL4,15,B,4,-39.42597421428218,41.24232266178583
F15CL1,15,C,1,-198.2524861505226,40.79828930257193
F15CL2,15,C,2,-130.3489505039579,40.77946011832631
F15CL3,15,C,3,-75.5250545216768,40.79828932661126
F15CL4,15,C,4,-56.474518057711975,40.77946014237675
F15D1L1,15,D1,1,-207.71195638690187,41.323958200459785
F15D1L2,15,D1,2,-141.13827274877622,41.30629887863602
F15D1L3,15,D1,3,-85.10893277525611,41.32395822419332
F15D1L4,15,D1,4,-65.14247407903895,41.30629890237971
F15D2L1,15,D2,1,-215.89977044277475,42.15062912340954
F15D2L2,15,D2,2,-148.46900767997795,42.132364632138895
F15D2L3,15,D2,3,-91.86080529025276,42.150629147807344
F15D2L4,15,D2,4,-69.56834706807058,42.13236465654728
F16AL1,16,A,1,-44.144362434963114,31.541262728350077
F16AL2,16,A,2,4.465097360480286,31.523773129559977
F16AL3,16,A,3,26.609027992890333,31.54126273076599
F16AL4,16,A,4,15.963608487254533,31.523773131977233
F16BL1,16,B,1,-28.566150182996353,31.729296401238255
F16BL2,16,B,2,18.742711563390912,31.70955207015478
F16BL3,16,B,3,33.51105456567893,31.72929640216538
F16BL4,16,B,4,23.233353686919145,31.70955207108248
F16CL1,16,C,1,-36.29090930280654,30.917470076926705
F16CL2,16,C,2,3.6141132077318616,30.90299575348845
F16CL3,16,C,3,21.634191568409733,30.91747007728326
F16CL4,16,C,4,6.6903551796713145,30.902995753845172
F16D1L1,16,D1,1,-42.69446051603154,30.61754655182863
F16D1L2,16,D1,2,-5.355409004550893,30.60582341611851
F16D1L3,16,D1,3,15.797452117112698,30.617546552188678
F16D1L4,16,D1,4,-1.2132848269175156,30.6058234164787
F16D2L1,16,D2,1,-47.92069063978488,30.525710693198533
F16D2L2,16,D2,2,-10.92252045737041,30.515326604773005
F16D2L3,16,D2,3,12.677045613600058,30.525710693741583
F16D2L4,16,D2,4,-4.898435955055902,30.515326605316236
F17AL1,17,A,1,-66.13010447836132,35.15259260738421
F17AL2,17,A,2,6.847427496722958,35.12493134998431
F17AL3,17,A,3,40.53608256253938,35.15259262359575
F17AL4,17,A,4,41.92408111794066,35.12493136620862
F17BL1,17,B,1,-47.86598668943043,34.562614834595664
F17BL2,17,B,2,22.724498669049353,34.534509083683105
F17BL3,17,B,3,50.73154092315235,34.562614846833824
F17BL4,17,B,4,49.86559824556025,34.53450909593123
F17CL1,17,C,1,-58.276651346204744,33.57641630763688
F17CL2,17,C,2,5.9964433439745335,33.55258342173687
F17CL3,17,C,3,35.56124613805878,33.57641631778933
F17CL4,17,C,4,32.650827811266936,33.55258343189652
F17D1L1,17,D1,1,-66.33306750472912,33.36080669553414
F17D1L2,17,D1,2,-3.9573600806761533,33.33892665536484
F17D1L3,17,D1,3,27.6977794319464,33.36080670575219
F17D1L4,17,D1,4,24.333789694992447,33.338926665589604
F17D2L1,17,D2,1,-72.59233821923772,33.46531237099981
F17D2L2,17,D2,2,-10.13964729190775,33.444069162717554
F17D2L3,17,D2,3,23.31066839496998,33.465312382031776
F17D2L4,17,D2,4,20.39026474903949,33.44406917375653
F18AL1,18,A,1,-88.13198973075487,40.8796286979742
F18AL2,18,A,2,9.23150687776797,40.84088107546495
F18AL3,18,A,3,54.47336318411544,40.879628735230675
F18AL4,18,A,4,67.90361543608014,40.84088111275677
F18BL1,18,B,1,-67.17999425836751,39.520880991892625
F18BL2,18,B,2,26.709209434557124,39.48372644077162
F18BL3,18,B,3,67.96467156254948,39.520881024178124
F18BL4,18,B,4,76.51739774610178,39.48372647308749
F18CL1,18,C,1,-80.2785365985983,38.644486505696655
F18CL2,18,C,2,8.380522725019546,38.609713319846236
F18CL3,18,C,3,49.49852675963484,38.64448653494009
F18CL4,18,C,4,58.630362130315916,38.60971334911601
F18D1L1,18,D1,1,-89.98903133169733,38.65335383115138
F18D1L2,18,D1,2,-2.558284628776164,38.619336502687
F18D1L3,18,D1,3,39.60684465846498,38.6533538603881
F18D1L4,18,D1,4,49.899622363227536,38.61933653194947
F18D2L1,18,D2,1,-97.28210115554248,39.0040283605596
F18D2L2,18,D2,2,-9.356199295325496,38.96985459956913
F18D2L3,18,D2,3,33.95209899963447,39.00402839084293
F18D2L4,18,D2,4,45.697533885686425,38.96985462987902
